…
```r
activDaily <- (activity %>%
                 select(steps, date) %>%
                 group_by(date) %>%
                 mutate(steps = sum(steps, na.rm = TRUE)) %>%
                 unique)

activDaily
```

```
## # A tibble: 61 x 2
## # Groups:   date [61]
##    steps date      
##    <int> <date>    
##  1     0 2012-10-01
##  2   126 2012-10-02
##  3 11352 2012-10-03
##  4 12116 2012-10-04
##  5 13294 2012-10-05
##  6 15420 2012-10-06
##  7 11015 2012-10-07
##  8     0 2012-10-08
##  9 12811 2012-10-09
## 10  9900 2012-10-10
## # ... with 51 more rows
```
…
We group the original data frame `activity` by interval identifier, then apply `mean()` to each group (taking missing values into account) to form a new data frame called `activInterval`.


```r
activInterval <- (activity %>%
                    select(interval, steps) %>%
                    group_by(interval) %>%
                    mutate(steps = mean(steps, na.rm = TRUE)) %>%
                    unique)
activInterval
```

```
## # A tibble: 288 x 2
## # Groups:   interval [288]
##    interval  steps
##       <int>  <dbl>
##  1        0 1.72  
##  2        5 0.340 
##  3       10 0.132 
##  4       15 0.151 
##  5       20 0.0755
##  6       25 2.09  
##  7       30 0.528 
##  8       35 0.868 
##  9       40 0     
## 10       45 1.47  
## # ... with 278 more rows
```
…
